{
    "display_name": "python_spark",
    "language": "python",
    "argv": [
     "/home/alonhrl/anaconda3/envs/predictive/bin/python",
     "-m",
     "ipykernel",
     "-f",
     "{connection_file}"
    ],
    "env": {
     "PYSPARK_PYTHON": "/home/alonhrl/anaconda3/envs/predictive/bin/python",
     "SPARK_HOME": "/usr/local/spark",
     "PYTHONPATH": "/usr/local/spark/python/lib/py4j-0.10.7-src.zip:/usr/local/spark/python/",
     "PYTHONSTARTUP": "/usr/local/spark/python/pyspark/shell.py"
    }
   }
   